^C:\USERS\LASSA\SOURCE\REPOS\HOMEWORK 17.5\X64\DEBUG\HOMEWORK 17.5.OBJ
C:\USERS\LASSA\SOURCE\REPOS\HOMEWORK 17.5\X64\DEBUG\HOMEWORK 17.5.EXE
C:\USERS\LASSA\SOURCE\REPOS\HOMEWORK 17.5\X64\DEBUG\HOMEWORK 17.5.ILK
C:\USERS\LASSA\SOURCE\REPOS\HOMEWORK 17.5\X64\DEBUG\HOMEWORK 17.5.PDB
